Create an aba model. — aba_model • aba
…
# or access the raw summary results:
print(model_summary$results)
#> # A tibble: 184 × 10
#>    group  outcome   stat  predictor_set term   form  estimate conf_low conf_high
#>    <chr>  <chr>     <chr> <chr>         <chr>  <chr>    <dbl>    <dbl>     <dbl>
#>  1 every… Converte… glm   M1            (Inte… coef   6.83e-3 6.62e- 6    5.64e0
#>  2 every… Converte… glm   M1            AGE    coef   1.03e+0 9.62e- 1    1.11e0
#>  3 every… Converte… glm   M1            GENDER coef   7.00e-1 2.32e- 1    2.00e0
#>  4 every… Converte… glm   M1            EDUCA… coef   1.02e+0 8.32e- 1    1.26e0
#>  5 every… Converte… glm   M2            (Inte… coef   1.03e-1 1.26e- 5    8.16e2
#>  6 every… Converte… glm   M2            AGE    coef   1.03e+0 9.52e- 1    1.11e0
#>  7 every… Converte… glm   M2            GENDER coef   6.57e-1 2.15e- 1    1.90e0
#>  8 every… Converte… glm   M2            EDUCA… coef   1.02e+0 8.36e- 1    1.26e0
#>  9 every… Converte… glm   M2            PLASM… coef   1.44e-8 4.99e-26    3.90e8
#> 10 every… Converte… glm   M3            (Inte… coef   2.24e-3 2.11e- 6    1.85e0
#> # … with 174 more rows, and 1 more variable: pval <dbl>
…
