Calculated estimated marginal means. — aba_emmeans • aba
…
#>   group  outcome stat  predictor_set treatment time  estimate conf_low conf_high
#>   <chr>  <chr>   <chr> <chr>         <chr>     <fct>    <dbl>    <dbl>     <dbl>
#> 1 every… CDRSB   mmrm  M1            Placebo … m06     -0.227   -0.397   -0.0569
#> 2 every… CDRSB   mmrm  M1            Placebo … m12     -0.446   -0.656   -0.237 
#> 3 every… CDRSB   mmrm  M1            Placebo … m24     -0.968   -1.32    -0.621 
#> 4 every… ADAS13  mmrm  M1            Placebo … m06     -1.23    -2.14    -0.317 
#> 5 every… ADAS13  mmrm  M1            Placebo … m12     -1.41    -2.47    -0.347 
#> 6 every… ADAS13  mmrm  M1            Placebo … m24     -2.73    -4.05    -1.41  
#> 7 every… MMSE    mmrm  M1            Placebo … m06      0.707    0.330    1.08  
#> 8 every… MMSE    mmrm  M1            Placebo … m12      0.996    0.586    1.40  
#> 9 every… MMSE    mmrm  M1            Placebo … m24      1.70     1.13     2.27  
#> # … with 1 more variable: pval <dbl>
#> 
#> $counts
#> # A tibble: 24 × 7
#>    group      outcome stat  predictor_set treatment time      n
#>    <chr>      <chr>   <chr> <chr>         <fct>     <fct> <int>
#>  1 everyone() CDRSB   mmrm  M1            Placebo   bl      198
#>  2 everyone() ADAS13  mmrm  M1            Placebo   bl      198
#>  3 everyone() MMSE    mmrm  M1            Placebo   bl      198
#>  4 everyone() CDRSB   mmrm  M1            Placebo   m06     184
#>  5 everyone() ADAS13  mmrm  M1            Placebo   m06     183
#>  6 everyone() MMSE    mmrm  M1            Placebo   m06     186
#>  7 everyone() CDRSB   mmrm  M1            Placebo   m12     183
#>  8 everyone() ADAS13  mmrm  M1            Placebo   m12     182
#>  9 everyone() MMSE    mmrm  M1            Placebo   m12     185
#> 10 everyone() CDRSB   mmrm  M1            Placebo   m24     159
#> # … with 14 more rows
…
